<svg version="1.1" id="Layer_1" xmlns="http://www.w3.org/2000/svg" xmlns:xlink="http://www.w3.org/1999/xlink" x="0px" y="0px"
	 width="26px" height="26px" viewBox="0 0 26 26" enable-background="new 0 0 26 26" xml:space="preserve">
<path fill="#464646" d="M11.7,19.8c-0.2,0.2-0.2,0.6,0,0.9c0.2,0.2,0.6,0.2,0.9,0l7.1-7.2c0.2-0.2,0.2-0.6,0-0.9l-7.1-7.2
	c-0.2-0.2-0.6-0.2-0.9,0s-0.2,0.6,0,0.9l6.5,6.8L11.7,19.8z"/>
<path fill="#464646" d="M13,25C6.5,25,1.2,19.7,1.2,13.2S6.5,1.4,13,1.4s11.8,5.3,11.8,11.8S19.5,25,13,25z M13,2.4
	C7,2.4,2.2,7.2,2.2,13.2S7,24,13,24s10.8-4.9,10.8-10.8S19,2.4,13,2.4z"/>
</svg>